Decode_testbench.vcd
$date
     Mar 16, 2020       14:46:15
$end

$version
 SystemC 2.3.3-Accellera --- Feb 14 2020 17:04:42
$end

$timescale
     1 ps
$end

$scope module SystemC $end
$var wire    1  aaaaa  CLOCK       $end
$var wire   16  aaaab  instruction [15:0]  $end
$var wire    1  aaaac  c_imm       $end
$var wire    1  aaaad  reg_write       $end
$var wire    1  aaaae  c_sub       $end
$var wire    1  aaaaf  c_carry       $end
$var wire    1  aaaag  c_mov       $end
$var wire    1  aaaah  c_jump       $end
$var wire    1  aaaai  c_store       $end
$var wire    1  aaaaj  c_load_store       $end
$var wire    1  aaaak  dm_read       $end
$var wire    1  aaaal  dm_write       $end
$var wire    8  aaaam  imm [7:0]  $end
$var wire    4  aaaan  Rdest [3:0]  $end
$var wire    5  aaaao  alu_op [4:0]  $end
$var wire   16  aaaap  PC_out [15:0]  $end
$var wire    4  aaaaq  raddr1 [3:0]  $end
$var wire    4  aaaar  raddr2 [3:0]  $end
$var wire    1  aaaas  rf_r       $end
$upscope $end
$enddefinitions  $end

$comment
All initial values are dumped below at time 0 sec = 0 timescale units.
$end

$dumpvars
1aaaaa
b0 aaaab
0aaaac
0aaaad
0aaaae
0aaaaf
0aaaag
0aaaah
0aaaai
0aaaaj
0aaaak
0aaaal
b0 aaaam
b0 aaaan
b0 aaaao
b0 aaaap
b0 aaaaq
b0 aaaar
1aaaas
$end

#50000
0aaaaa

#100000
1aaaaa
b100001000000011 aaaab
1aaaad
1aaaaj
1aaaak
b11 aaaam
b10 aaaan
b11011 aaaao
b11 aaaaq
b10 aaaar

#150000
0aaaaa

#200000
1aaaaa
b0 aaaab
0aaaad
0aaaaj
0aaaak
b0 aaaam
b0 aaaan
b0 aaaao
b0 aaaaq
b0 aaaar

#250000
0aaaaa

#300000
1aaaaa
b100010000000101 aaaab
1aaaad
1aaaaj
1aaaak
b101 aaaam
b100 aaaan
b11011 aaaao
b101 aaaaq
b100 aaaar

#350000
0aaaaa

#400000
1aaaaa
b0 aaaab
0aaaad
0aaaaj
0aaaak
b0 aaaam
b0 aaaan
b0 aaaao
b0 aaaaq
b0 aaaar

#450000
0aaaaa

#500000
1aaaaa
b101100000010001 aaaab
1aaaac
1aaaad
b10001 aaaam
b1000 aaaan
b1 aaaao
b1 aaaaq
b1000 aaaar

#550000
0aaaaa

#600000
1aaaaa
b10001010010 aaaab
0aaaac
b1010010 aaaam
b100 aaaan
b0 aaaao
b10 aaaaq
b100 aaaar

#650000
0aaaaa

#700000
1aaaaa
b100011000000111 aaaab
1aaaaj
1aaaak
b111 aaaam
b110 aaaan
b11011 aaaao
b111 aaaaq
b110 aaaar

#750000
0aaaaa

#800000
1aaaaa
b0 aaaab
0aaaad
0aaaaj
0aaaak
b0 aaaam
b0 aaaan
b0 aaaao
b0 aaaaq
b0 aaaar

#850000
0aaaaa

#900000
1aaaaa
b1001100000001111 aaaab
1aaaac
1aaaad
b1111 aaaam
b1000 aaaan
b111 aaaao
b1111 aaaaq
b1000 aaaar

#950000
0aaaaa

#1000000
1aaaaa
b100001000000101 aaaab
0aaaac
1aaaaj
1aaaak
b101 aaaam
b10 aaaan
b11011 aaaao
b101 aaaaq
b10 aaaar

#1050000
0aaaaa

#1100000
1aaaaa
b0 aaaab
0aaaad
0aaaaj
0aaaak
b0 aaaam
b0 aaaan
b0 aaaao
b0 aaaaq
b0 aaaar

#1150000
0aaaaa

#1200000
1aaaaa
b1001011000 aaaab
1aaaad
b1011000 aaaam
b10 aaaan
b1000 aaaaq
b10 aaaar

#1250000
0aaaaa

#1300000
1aaaaa
b100100001000011 aaaab
0aaaad
1aaaai
1aaaaj
1aaaal
b1000011 aaaam
b1000 aaaan
b11100 aaaao
b11 aaaaq
b1000 aaaar

#1350000
0aaaaa

#1400000
1aaaaa
b0 aaaab
0aaaai
0aaaaj
0aaaal
b0 aaaam
b0 aaaan
b0 aaaao
b0 aaaaq
b0 aaaar

#1450000
0aaaaa

#1500000
1aaaaa
b100010001000101 aaaab
1aaaai
1aaaaj
1aaaal
b1000101 aaaam
b100 aaaan
b11100 aaaao
b101 aaaaq
b100 aaaar

