Processor.vcd
$date
     Mar 18, 2020       11:16:41
$end

$version
 SystemC 2.3.3-Accellera --- Feb 14 2020 17:04:42
$end

$timescale
     1 ps
$end

$scope module SystemC $end
$var wire    1  aaaaa  CLOCK       $end
$var wire    1  aaaab  reset       $end
$var wire   16  aaaac  instruction [15:0]  $end
$var wire    4  aaaad  Rsrc/decode [3:0]  $end
$var wire    4  aaaae  Rdest/decode [3:0]  $end
$var wire   16  aaaaf  RF_Rsrc/RF [15:0]  $end
$var wire   16  aaaag  RF_Rdest_/RF [15:0]  $end
$var wire    4  aaaah  Rdest/WB [3:0]  $end
$var wire    4  aaaai  Rdest/EXE [3:0]  $end
$var wire    4  aaaaj  Rdest/MEM [3:0]  $end
$var wire    1  aaaak  c_load_store/decode       $end
$var wire    1  aaaal  c_store       $end
$var wire   16  aaaam  alu_result/exe [15:0]  $end
$var wire   16  aaaan  mdr [15:0]  $end
$var wire   16  aaaao  mar [15:0]  $end
$var wire    1  aaaap  reg_write/WB       $end
$var wire   16  aaaaq  wb_data [15:0]  $end
$var wire    8  aaaar  imm/dec [7:0]  $end
$var wire    1  aaaas  br_taken       $end
$var wire   16  aaaat  PC [15:0]  $end
$upscope $end
$enddefinitions  $end

$comment
All initial values are dumped below at time 0 sec = 0 timescale units.
$end

$dumpvars
0aaaaa
0aaaab
b0 aaaac
b0 aaaad
b0 aaaae
b0 aaaaf
b0 aaaag
b0 aaaah
b0 aaaai
b0 aaaaj
0aaaak
0aaaal
b0 aaaam
b0 aaaan
b0 aaaao
0aaaap
b0 aaaaq
b0 aaaar
0aaaas
b0 aaaat
$end

#10000
1aaaaa

#20000
0aaaaa

#30000
1aaaaa

#40000
0aaaaa
1aaaab

#50000
1aaaaa

#60000
0aaaaa

#70000
1aaaaa

#80000
0aaaaa

#90000
1aaaaa

#100000
0aaaaa

#110000
1aaaaa
b1 aaaat

#120000
0aaaaa

#130000
1aaaaa
b10 aaaat

#140000
0aaaaa

#150000
1aaaaa
b101010010 aaaac
b11 aaaat

#160000
0aaaaa

#170000
1aaaaa
b101010011 aaaac
b10 aaaad
b1 aaaae
b10 aaaaf
b1 aaaag
b1010010 aaaar
b100 aaaat

#180000
0aaaaa

#190000
1aaaaa
b101010100 aaaac
b11 aaaad
b11 aaaaf
b1 aaaai
b11 aaaam
b1010011 aaaar
b101 aaaat

#200000
0aaaaa

#210000
1aaaaa
b101010101 aaaac
b100 aaaad
b100 aaaaf
b1 aaaaj
b100 aaaam
b1010100 aaaar
b110 aaaat

#220000
0aaaaa
b1 aaaah
1aaaap
b11 aaaaq

#230000
1aaaaa
b1011000100001010 aaaac
b101 aaaad
b101 aaaaf
b11 aaaag
b101 aaaam
b1010101 aaaar
b111 aaaat

#240000
0aaaaa
b100 aaaaq

#250000
1aaaaa
b100000111001010 aaaac
b1010 aaaad
b11010 aaaaf
b100 aaaag
b1000 aaaam
b1010 aaaar
b1000 aaaat

#260000
0aaaaa
b101 aaaaq

#270000
1aaaaa
b101010110 aaaac
b1111111111111010 aaaam
b11001010 aaaar
b1001 aaaat

#280000
0aaaaa
b1000 aaaaq

#290000
1aaaaa
b101010111 aaaac
b110 aaaad
b110 aaaaf
b1000 aaaag
b0 aaaam
b1010110 aaaar
b1010 aaaat

#300000
0aaaaa
0aaaap
b1111111111111010 aaaaq

#310000
1aaaaa
b101011000 aaaac
b111 aaaad
b111 aaaaf
b1110 aaaam
b1010111 aaaar
1aaaas
b1101 aaaat

#320000
0aaaaa
b0 aaaaq

#330000
1aaaaa
b0 aaaac
b1000 aaaad
b1000 aaaaf
b1111 aaaam
b1011000 aaaar
0aaaas
b1100 aaaat

#340000
0aaaaa
b0 aaaah

#350000
1aaaaa
b101011000 aaaac
b0 aaaad
b0 aaaae
b0 aaaai
b0 aaaaj
b0 aaaam
b0 aaaar
b0 aaaat

#360000
0aaaaa

#370000
1aaaaa
b0 aaaac
b1000 aaaad
b1 aaaae
b10000 aaaam
b1011000 aaaar

#380000
0aaaaa

#390000
1aaaaa
b0 aaaad
b0 aaaae
b0 aaaaf
b0 aaaag
b1 aaaai
b0 aaaar

#400000
0aaaaa
b10000 aaaaq

#410000
1aaaaa
b0 aaaai
b1 aaaaj
b0 aaaam
b1110 aaaat

#420000
0aaaaa
b1 aaaah
1aaaap

#430000
1aaaaa
b0 aaaaj

#440000
0aaaaa
b0 aaaah
0aaaap
b0 aaaaq

